…
data <- as.data.frame(confucius) %>%

    as_tibble %>%

    # channels 1, 2, 3 (RGB) as factor

    mutate(cc = as.factor(cc))

data 
```

```
# A tibble: 1,358,400 x 4

       x     y cc    value

   <int> <int> <fct> <dbl>

 1     1     1 1     0.518

 2     2     1 1     0.529

 3     3     1 1     0.518

 4     4     1 1     0.510

 5     5     1 1     0.533

 6     6     1 1     0.541

 7     7     1 1     0.533

 8     8     1 1     0.533

 9     9     1 1     0.510

10    10     1 1     0.471

# ... with 1,358,390 more rows 
```
…
confucius.hsv <- RGBtoHSL(confucius)

data <- as.data.frame(confucius.hsv) %>%

    as_tibble %>%

    # channels 1, 2, 3 (HSV) as factor

    mutate(cc = as.factor(cc))

data 
```

```
# A tibble: 1,358,400 x 4

       x     y cc    value

   <int> <int> <fct> <dbl>

 1     1     1 1      21.0

 2     2     1 1      19.7

 3     3     1 1      19.7

 4     4     1 1      19.7

 5     5     1 1      19.7

 6     6     1 1      19.7

 7     7     1 1      19.7

 8     8     1 1      19.7

 9     9     1 1      19.7

10    10     1 1      20  

# ... with 1,358,390 more rows 
```
…
