…
 Days: 358 
```

让我们看几行数据集，感受一下它的本质。我们可以看到，在记录间隔期间，每 3 分钟就有一行。对于这个部分，时间间隔完全是规则的，为 3 分钟，不存在丢失的值。此外，原始数据中一些明显的记录错误在这里用估算值进行了清理。

```
%%R -i thermo

glarp <- as.tibble(thermo)

glarp 
```

```
# A tibble: 171,349 x 5

   timestamp           basement   lab livingroom outside

   <dttm>                 <dbl> <dbl>      <dbl>   <dbl>

 1 2003-07-25 16:04:00     24    25.2       29.8    27.5

 2 2003-07-25 16:07:00     24    25.2       29.8    27.3

 3 2003-07-25 16:10:00     24    25.2       29.8    27.3

 4 2003-07-25 16:13:00     24.1  25.2       29.8    27.4

 5 2003-07-25 16:16:00     24.1  25.2       29.8    27.8

 6 2003-07-25 16:19:00     24.1  25.2       29.8    27.5

 7 2003-07-25 16:22:00     24.1  25.2       29.8    27.6

 8 2003-07-25 16:25:00     24.1  25.2       29.8    27.6

 9 2003-07-25 16:28:00     24.1  25.2       29.8    27.7

10 2003-07-25 16:31:00     24.1  25.2       29.8    27.6

# ... with 171,339 more rows 
```
…
我们可以在图中看到我们的年度去趋势化占了数据变化的大部分，因此我们可以简单地从潜在点中减去趋势，作为第一步，获得测量结果的意外程度。一个名为`outside`的新表将保存这个更窄的焦点的数据。

```
%%R

outside <- glarp[, c("timestamp", "outside")] %>%

    add_column(no_seasonal = glarp$outside - predict(year.model))

outside 
```

```
# A tibble: 171,349 x 3

   timestamp           outside no_seasonal

   <dttm>                <dbl>       <dbl>

 1 2003-07-25 16:04:00    27.5        1.99

 2 2003-07-25 16:07:00    27.3        1.79

 3 2003-07-25 16:10:00    27.3        1.79

 4 2003-07-25 16:13:00    27.4        1.89

 5 2003-07-25 16:16:00    27.8        2.29

 6 2003-07-25 16:19:00    27.5        1.99

 7 2003-07-25 16:22:00    27.6        2.10

 8 2003-07-25 16:25:00    27.6        2.10

 9 2003-07-25 16:28:00    27.7        2.20

10 2003-07-25 16:31:00    27.6        2.07

# ... with 171,339 more rows 
```
…
outside2 
```

```
Call:

lm(formula = no_seasonal ~ sin(x) + cos(x), data = outside)

Coefficients:

(Intercept)       sin(x)       cos(x)  

  0.0002343   -0.5914551    3.6214463  

# A tibble: 171,349 x 5

   timestamp           outside no_seasonal day_model no_daily

   <dttm>                <dbl>       <dbl>     <dbl>    <dbl>

 1 2003-07-25 16:04:00    27.5        1.99      3.61    -1.62

 2 2003-07-25 16:07:00    27.3        1.79      3.60    -1.81

 3 2003-07-25 16:10:00    27.3        1.79      3.60    -1.80

 4 2003-07-25 16:13:00    27.4        1.89      3.59    -1.69

 5 2003-07-25 16:16:00    27.8        2.29      3.58    -1.28

 6 2003-07-25 16:19:00    27.5        1.99      3.56    -1.57

 7 2003-07-25 16:22:00    27.6        2.10      3.55    -1.46

 8 2003-07-25 16:25:00    27.6        2.10      3.54    -1.44

 9 2003-07-25 16:28:00    27.7        2.20      3.53    -1.33

10 2003-07-25 16:31:00    27.6        2.07      3.51    -1.44

# ... with 171,339 more rows 
```
…
