…
humans 
```

```
── Column specification ───

cols(

  Height = col_double(),

  Weight = col_double()

)

# A tibble: 25,000 x 2

   Height Weight

    <dbl>  <dbl>

 1   167\.   51.3

 2   182\.   61.9

 3   176\.   69.4

 4   173\.   64.6

 5   172\.   65.5

 6   174\.   55.9

 7   177\.   64.2

 8   178\.   61.9

 9   172\.   51.0

10   170\.   54.7

# ... with 24,990 more rows 
```
…
让我们看一看使用实际分类值而不是人为离散化范围的数据集。UCI 机器学习 1997 [汽车评估数据集](https://archive.ics.uci.edu/ml/datasets/Car+Evaluation)在这里很有用。原始数据集使用各种分类词作为序数值，例如主干是“小”、“中”或“大”，或者维护价格是“低”、“中”、“高”或“高”。在本书中，这些被转换成连续整数。然而，我们将重点关注的总体评分是作为描述性词语留下的，尽管它也是以明显的隐含顺序排列的。

```
%%R

cars <- read_csv('data/cars.csv', 

                 col_types = cols("i", "i", "i", "i", "i", "i", "f"))

cars 
```

```
# A tibble: 1,728 x 7

    price_buy  price_maintain  doors  passengers  trunk  safety  rating      

        <int>           <int>  <int>       <int>  <int>   <int>  <fct>       

 1          1               0      3           6      0       0  Unacceptable

 2          2               2      3           6      2       1  Acceptable  

 3          2               2      5           2      1       1  Unacceptable

 4          0               1      3           2      2       1  Unacceptable

 5          2               1      5           2      0       1  Unacceptable

 6          3               1      2           6      2       1  Acceptable  

 7          0               2      4           4      0       0  Unacceptable

 8          1               2      2           4      2       0  Unacceptable

 9          1               0      4           4      0       1  Acceptable  

10          1               3      3           2      0       0  Unacceptable

# ... with 1,718 more rows 
```
…
unacc <- sample(which(cars$rating == "Unacceptable"), 100)

acc <- sample(which(cars$rating == "Acceptable"), 100)

good <- sample(which(cars$rating == "Good"), 69)

vgood <- sample(which(cars$rating == "Very Good"), 65)

samples <- slice(cars, c(vgood, good, acc, unacc))

samples 
```

```
# A tibble: 334 x 7

    price_buy  price_maintain  doors  passengers  trunk  safety     rating   

        <int>           <int>  <int>       <int>  <int>   <int>      <fct>    

 1          0               1      2           6      2       2  Very Good

 2          0               0      4           4      2       2  Very Good

 3          1               0      3           6      1       2  Very Good

 4          0               0      5           6      1       2  Very Good

 5          1               0      3           4      2       2  Very Good

 6          1               1      3           6      1       2  Very Good

 7          1               0      5           4      1       2  Very Good

 8          1               0      4           4      1       2  Very Good

 9          0               0      3           6      2       2  Very Good

10          1               1      4           6      2       2  Very Good

# ... with 324 more rows 
```
…
