…
data <- files   %>%

  # read_csv() on each file, reduce to one DF with rbind

  map(read_csv_quiet) %>%  

  # If this were genuinely large data, we would process each file individually

  reduce(rbind)  

data 
```

```py
# A tibble: 2,592,000 x 5

   timestamp              id name         x       y

   <dttm>              <dbl> <fct>    <dbl>   <dbl>

 1 2000-01-01 00:00:00   979 Zelda   0.802   0.167 

 2 2000-01-01 00:00:01  1019 Ingrid -0.350   0.705 

 3 2000-01-01 00:00:02  1007 Hannah -0.170  -0.0508

 4 2000-01-01 00:00:03  1034 Ursula  0.868  -0.191 

 5 2000-01-01 00:00:04  1024 Ingrid  0.0838  0.109 

 6 2000-01-01 00:00:05   955 Ingrid -0.757   0.308 

 7 2000-01-01 00:00:06   968 Laura   0.230  -0.913 

 8 2000-01-01 00:00:07   945 Ursula  0.265  -0.271 

 9 2000-01-01 00:00:08  1020 Victor  0.512  -0.481 

10 2000-01-01 00:00:09   992 Wendy   0.862  -0.599 

# ... with 2,591,990 more rows 
```
…
